{
  "AWSTemplateFormatVersion": "2010-09-09",
  "Parameters": {
    "InstanceType": {
      "Type": "String"
    },
    "subnet": {
      "Type": "String"
    },
    "vpc": {
      "Type": "String"
    }
  },
  "Resources": {
    "sampleApplication": {
      "Type": "AWS::ElasticBeanstalk::Application",
      "Properties": {
        "Description": "Aplicação Beanstalk exemplo"
      }
    },
    "sampleConfigurationTemplate": {
      "Type": "AWS::ElasticBeanstalk::ConfigurationTemplate",
      "Properties": {
        "ApplicationName": {
          "Ref": "sampleApplication"
        },
        "Description": "AWS ElasticBeanstalk Sample Configuration Template",
        "OptionSettings": [{
            "Namespace": "aws:autoscaling:launchconfiguration",
            "OptionName": "InstanceType",
            "Value": {
              "Ref": "InstanceType"
            }
          }, {
            "Namespace": "aws:ec2:vpc",
            "OptionName": "AssociatePublicIpAddress",
            "Value": "true"
          },

          {
            "Namespace": "aws:ec2:vpc",
            "OptionName": "VPCId",
            "Value": {
              "Ref": "vpc"
            }
          }, {
            "Namespace": "aws:ec2:vpc",
            "OptionName": "subnets",
            "Value": {
              "Ref": "subnet"
            }
          }, {
            "Namespace": "aws:autoscaling:asg",
            "OptionName": "MinSize",
            "Value": "2"
          }, {
            "Namespace": "aws:autoscaling:asg",
            "OptionName": "MaxSize",
            "Value": "6"
          }, {
            "Namespace": "aws:elasticbeanstalk:environment",
            "OptionName": "EnvironmentType",
            "Value": "LoadBalanced"
          }
        ],
        "SolutionStackName": "64bit Amazon Linux 2016.09 v2.2.0 running Docker 1.11.2"
      }
    },
    "sampleEnvironment": {
      "Type": "AWS::ElasticBeanstalk::Environment",
      "Properties": {
        "ApplicationName": {
          "Ref": "sampleApplication"
        },
        "Description": "Exemplo de aplicação beanstalk",
        "TemplateName": {
          "Ref": "sampleConfigurationTemplate"
        }
      }
    }
  }
}
